// Jest Snapshot v1, https://goo.gl/fbAQLP

exports[`<SnapshotNonDeterministicData /> matches snapshot 1`] = `
<div>
  <div
    class="makeStyles-h1-2"
  >
    Snapshot with Non-Deterministic Data
  </div>
  <div
    class="makeStyles-text-1"
  >
    <p>
      Running the same test, multiple times, on an unchanged component should produce the same snapshot every time. However, snapshots generated for components that contain data that is non-deterministic will cause a snapshot test to fail. Example of non-deterministic data include dates, uuids, etc. The snapshot test in SnapshotNonDeterministicData.test.js is currently failing due to call to create a new Date object. To get the test to pass, comment out line 15 and uncomment line 16 in SnapshotNonDeterministicData.jsx. Then, rerun the tests
    </p>
    <p>
      The reason the fix above works is because we are mocking Date.now(). Take a look at the mock in src/setupTests.js. setupTests.js is a special file in terms of testing. By including the mock in setupTests.js, the mock will intercept all calls to Date.now().
    </p>
    <div>
      The culprit: 
      Mon Apr 27 2020 15:24:29 GMT-0600 (Mountain Daylight Time)
    </div>
    <a
      href="https://jestjs.io/docs/en/snapshot-testing#2-tests-should-be-deterministic"
      rel="noopener noreferrer"
      target="_blank"
    >
      reference
    </a>
  </div>
</div>
`;
