// Jest Snapshot v1, https://goo.gl/fbAQLP

exports[`<CodeCoverage /> matches snapshot 1`] = `
<div>
  <div
    class="makeStyles-h1-2"
  >
    Code Coverage
  </div>
  <div
    class="makeStyles-text-1"
  >
    <p>
      To run code coverage and continue watching for updates: npm test -- --coverage --watchAll,
    </p>
    <p>
      To run code coverage one time: npm test -- --coverage --watchAll=false
    </p>
    <p>
      How to read the code coverage report
    </p>
    <ul>
      <li>
        <a
          href="https://medium.com/swlh/react-testing-using-jest-along-with-code-coverage-report-7454b5ba0236"
          rel="noopener noreferrer"
          target="_blank"
        >
          reference
        </a>
      </li>
      <li>
        <a
          href="https://medium.com/@krishankantsinghal/how-to-read-test-coverage-report-generated-using-jest-c2d1cb70da8b"
          rel="noopener noreferrer"
          target="_blank"
        >
          reference
        </a>
      </li>
    </ul>
    <p>
      How to improve the results
    </p>
    <p>
      Re-run the code coverage report
    </p>
  </div>
</div>
`;
